MEDIA  NAME,SECTOR ,DIGITAL ARTIC.,UNIQUE VISITOR,PRINT ARTIC.,CIRCULATION
PC Magazine,High-tech,1,50 000,,
Mobile-Review,High-tech,1,1 000 000,,
Mforum.ru,High-tech,1,200 000,,
Onetile,High-tech,1,300 000,,
MS-devices.com,High-tech,1,50 000,,
24hitech.ru,High-tech,1,6 000,,
Helpix.ru,High-tech,1,500 000,,
Svetsky.ru,Lifestyle ,1,2 000,,
Hi-tech.Mail.ru,High-tech,1,7 000 000,,
Wi-fi.ru,Generalist,1,7 500 000,,
Mobbit.info,High-tech,1,10 000,,
Gadgetmir.org,High-tech,1,200 000,,
CanDoru,Lifestyle ,1,20 000,,
NoNaMe,Generalist,1,200 000,,
Chezasite,High-tech,1,400 000,,
Charge-up.ru,High-tech,1,30 000,,
Drugoi Gorod,Lifestyle ,1,100 000,,
W7phone,High-tech,1,25 000,,
AndroidInsider.ru,High-tech,1,300 000,,
Ingvarr.net.ru,High-tech,1,2 000,,
Life,Generalist,1,10 000 000,,
Android+1,High-tech,1,300 000,,
Vnokia.net,High-tech,1,80 000,,
GFS,High-tech,1,50 000,,
4PDA.ru,High-tech,1,7 000 000,,
Sotovik.ru,High-tech,1,1 500 000,,
MSN.com,Generalist,1,N/A,,
Idtech.biz,High-tech,1,1 000,,
Astera,High-tech,1,150 000,,
Content-review.com,High-tech,1,30 000,,
Ulpressa.ru,Generalist,1,400 000,,
MobileDevice,High-tech,1,100 000,,
PCnews.ru,High-tech,1,30 000,,
Rosinvest.com,Generalist,1,50 000,,
Ixbt.com,High-tech,1,1 000 000,,
STFW.ru,High-tech,1,20 000,,
Mobiltelefon.ru,High-tech,1,1 000 000,,
Notik.ru,High-tech,1,500 000,,
NewsWix.ru,Generalist,1,1 000,,
3Dnews.ru,High-tech,1,600 000,,
Always More Digital,High-tech,1,100 000,,
15-igr.ru,Others,1,100 000,,
Lenta.co,High-tech,1,50 000,,
SevKavPortal.ru,Generalist,1,100 000,,
InKlgd.com,Generalist,1,3 000,,
Ferra.ru,High-tech,1,1 500 000,,
Rambler/News,Generalist,1,9 000 000,,
SNCmedia.ru,Lifestyle ,1,600 000,,
InterviewRussia.ru,Lifestyle ,1,150 000,,
 @ElleDecorationRu,Lifestyle ,1,85 000,,
android-robot.com,High-tech,1,30 000,,
v-kurier.ru,Generalist,1,1 000,,
topre.ru,Generalist,1,91 000,,
AvtoInsider.com,High-tech,1,18 000,,
Newsera.ru,Generalist,1,70 000,,
tvoygorodpskov.ru,Generalist,1,102 000,,
163gorod.ru,Generalist,1,46 500,,
Aspnova.ru,Generalist,1,300 000,,
Yesmagazine.ru,Lifestyle ,1,120 000,,
Yes Instagram account,Lifestyle ,1,10 700,,
itrn.ru,High-tech,1,2 100,,
Astera.ru,High-tech,1,34 400,,
yamobi.ru,High-tech,1,300 000,,
7ya.ru,Lifestyle ,1,5 900 000,,
Weekend.rambler.ru,Lifestyle ,1,8 700 000,,
Hpc.ru,High-tech,1,70 000,,
Glamour.ru,Lifestyle ,1,1.900.000,,
Posta-magazine.ru,Lifestyle ,1,600,,
sncmedia.ru ,High-tech,1,600 000,,
MegaObzor.com,High-tech,1,787 000,,
ReadWeb.org,High-tech,1,20 000,,
grifonsoft.ru,High-tech,1,40 300,,
chezasite.com,High-tech,1,660 300,,
Flynews24.ru,Generalist,1,4 000,,
baikalinform.ru,Generalist,1,15 000,,
Ellegirl.ru,Lifestyle ,1,700 000,,
trashbox.ru,High-tech,1,7 000 000,,
i38.ru,High-tech,1,75 000,,
IT-Weekly.ru,High-tech,1,34 200,,
SpbIT.su,High-tech,1,4 000,,
Itsz.ru,High-tech,1,1 000,,
Overclockers.ru,High-tech,1,3 000 000,,
digimedia.ru,High-tech,1,54 600,,
ferralabs.ru,High-tech,1,18 100,,
DailyComm.ru,High-tech,1,25 700,,
ru.pcmag.com,High-tech,1,115 300,,
PC Week.ru,High-tech,1,232 500,,
Mobile-review.com,High-tech,1,3 100 000,,
itbestsellers.ru,High-tech,1,9 500,,
style.rbc.ru,Lifestyle ,1,5 000 000,,
fb.ru,Generalist,1,1 000 000,,
onetile.ru,High-tech,1,300 000,,
4tablet-pc.net,High-tech,1,350 300,,
wincore.ru,High-tech,1,100 000,,
wylsa.com,Generalist,1,1 000 000,,
polpred.com,Generalist,1,100 000,,
comnews.ru,High-tech,1,200 000,,
mobcompany.info,High-tech,1,500 000,,
rns.online,Generalist,1,3 000 000,,
itcrumbs.ru,High-tech,1,25 000,,
mt5.com,Generalist,1,140 000,,
Xdrv.ru,High-tech,1,320 000,,
babbler.me,High-tech,1,80 000,,
candoru.ru,Lifestyle ,1,40 000,,
moscowbeijing.ru,Generalist,1,2 500,,
dimonvideo.ru,High-tech,1,84 000,,
news-russia.info,Generalist,1,12 000,,
Operator. Communications News,High-tech,,,1,2 500
iguides.ru,High-tech,1,580 000,,
1nnc.net,Generalist,1,4 500,,
bankodrom.ru,Generalist,1,180 000,,
tsargrad.tv,Generalist,1,2 000 000,,
news.mail.ru,Generalist,1,27 000 000,,
the-village.ru,Generalist,1,7 100 000,,
ru.investing.com,Generalist,1,8 500 000,,
polit.ru,Generalist,1,2 600 000,,
rb.ru,Generalist,1,850 000,,
vedomosti.ru,Generalist,1,6 300 000,,
dp.ru,Generalist,1,2 200 000,,
kakmnevybrat.ru,Generalist,1,2 100,,
rusevik.ru,High-tech,1,200 000,,
dolgi.ru,Generalist,1,100 000,,
bankivse.ru,Generalist,1,600,,
hornews.ru,Generalist,1,32 000,,
cnews.ru,High-tech,1,860 000,,
computerworld.ru,High-tech,1,22 000,,
dg-yug.ru,Generalist,1,35 000,,
rbc.ru,Generalist,1,3 300 000,,
RBC Daily,Generalist,,,1,80 000
rosbalt.ru,Generalist,1,7 650 000,,
nrnews.ru,Generalist,1,40 000,,
kommersant.ru,Generalist,1,9 000 000,,
it-news.club,High-tech,1,13 000,,
fedpress.ru,Generalist,1,3 100 000,,
kultura29.ru,Generalist,1,1 000,,
patriotrus.ru,Generalist,1,650,,
nsn.fm,Generalist,1,1 700 000,,
Vedomosti,Generalist,,,1,75 000
irktorgnews.ru,Generalist,1,14 000,,
itoday.ru,High-tech,1,38 000,,
json.tv,High-tech,1,226 500,,
advis.ru,Generalist,1,64 000,,
tssonline.ru,High-tech,1,16 600,,
thl-rus.ru,High-tech,1,1 500,,
blackberrys.ru,High-tech,1,60 000,,
prcy-info.ru,High-tech,1,3 800,,
Stolnik magazine ,Lifestyle ,,,1,65 000
Techfeeds.ru,High-tech,1,1 000,,
Krasnews.com,Generalist,1,40 000,,
MobileDevice.ru,High-tech,1,20 000,,
Mobileimho.ru,High-tech,1,350 000,,
Rulsmart.com,High-tech,1,250 000,,
Rusgosnews.com,Generalist,1,40 000,,
Volgadaily.ru,Generalist,1,10 000,,
MarieClarie.ru,Lifestyle ,1,884 100,,
PCMag.com,High-tech,1,50 000,,
Zombie-media.ru,High-tech,1,10 000,,
Stolnik,Lifestyle ,,,1,65 000
U-sm.ru,High-tech,1,40 000,,
Megogo.net,Lifestyle,1,10 000 000,,
Hi-tech@Mail.Ru,High-tech,1,7 000 000,,
AndroidLime.ru,High-tech,1,150 000,,
Android4all.ru,High-tech,1,400 000,,
Stevsky.ru,Lifestyle,1,600 000,,
Ixbt.market,High-tech,1,100 000,,
4PDA,High-tech,1,7 000 000,,
AKKet.com,High-tech,1,200 000,,
IGuides,High-tech,1,2 500 000,,
Seoma.ru,High-tech,1,35 000,,
Hello Russia,Lifestyle ,,,1,300 000
Delovrabote.ru,Generalist,1,1 000,,
Gazetadaily.ru,Generalist,1,150 000,,
IGeek.ru,High-tech,1,20 000,,
Mbdevice.ru,High-tech,1,125 000,,
Mngz.ru,Generalist,1,200 000,,
News@Rambler.ru,Generalist,1,9 000 000,,
Planetnew.ru,Generalist,1,3 000,,
Slawyanka.info,Generalist,1,13 000,,
Soloma+,Generalist,1,1 000,,
Ttvoygorodpskov.ru,Generalist,1,100 000,,
Vistanews.ru,High-tech,1,1 000 000,,
Digital world,High-tech,1,70 000,,
Rusnewsinfo.ru,Generalist,1,30 000,,
Samsung-fun.ru,High-tech,1,250 000,,
Novostit.com,High-tech,1,12 000,,
InStyle,Lifestyle,,,1,130 000
Marie Claire,Lifestyle,,,1,140 000
Woman.ru,Lifestyle,1,20 000 000,,
Kremlinpress.com,Generalist,1,50 000,,
TechnoDaily,High-tech,1,50 000,,
Gooosha.ru,High-tech,1,400 000,,
ProTarif.info,High-tech,1,5 000,,
E-searching.net,High-tech,1,25 000,,
Svopi.ru,Generalist,1,800 000,,
Actualnews.org,Generalist,1,1 300 000,,
Ageofcomp.info,High-tech,1,40 000,,
AndroidSmartfony.com,High-tech,1,400 000,,
Howtablet.ru,High-tech,1,130 000,,
Sotaland.ru,High-tech,1,3 000,,
Unionnews.ru,Generalist,1,10 000,,
Android +1,High-tech,1,300 000,,
Dni24.com,Generalist,1,500 000,,
News.hi.ru,High-tech,1,180 000,,
Novostiit.net,High-tech,1,10 000,,
Ok-gadgets.net,High-tech,1,10 000,,
Sterlegrad,Generalist,1,400 000,,
Moskva.monavista.ru,Generalist,1,n/a,,
Mospravda.ru,Generalist,1,10 000,,
Roskachestvo.gov.ru,Others,1,100 000,,
MobiDevices.ru,High-tech,1,20 000,,
Winphonenews.ru,High-tech,1,25 000,,
AiF.ru,Generalist,1,8 500 000,,
Ria-stk.ru,High-tech,1,5 000,,
PenzaNews,Generalist,1,100 000,,
Forbes.ru,Generalist,1,4 000 000,,
Kp.ru,Generalist,1,13 000 000,,
Marpeople.com,Generalist,1,15 000,,
Cljournal.ru,Generalist,1,2 000,,
Kurer-sreda.ru,Generalist,1,100 000,,
Prime,Generalist,1,900 000,,
RIA Novosti,Generalist,1,n/a,,
Tass,Generalist,1,20 000 000,,
Itrn (itrn.ru),High-tech,1,2 000,,
Tadviser.ru,High-tech,1,50 000,,
Gorodskoyportal.ru/peterburg,Generalist,1,n/a,,
Rusbase,Generalist,1,800 000,,
VC.ru,Generalist,1,1 800 000,,
Abnews.ru,Generalist,1,100 000,,
Hitech.Vesti.ru,High-tech,1,1 300 000,,
Gorod-zlatoust.ru,Generalist,1,2 000,,
W7phone.ru,High-tech,1,20 000,,
BlackBerries.ru,High-tech,1,60 000,,
Arhano.ru,Generalist,1,100 000,,
Faktom.ru,Generalist,1,100 000,,
Ichip.ru,High-tech,1,1 000 000,,
Kavinfo.ru,Generalist,1,100,,
Mobipukka.ru,High-tech,1,80 000,,
Msinsider.ru,High-tech,1,20 000,,
Newsnhk.com,High-tech,1,3 000,,
Oszone.net,High-tech,1,900 000,,
Planet-today.ru,Generalist,1,600 000,,
Rulsmart,High-tech,1,100 000,,
Superg.ru,High-tech,1,250 000,,
Superplanshet.ru,High-tech,1,30 000,,
Supervesti.ru,High-tech,1,1 000,,
Thevista.ru,High-tech,1,20 000,,
Trashbox,High-tech,1,1 400 000,,
Superdevice.rf,High-tech,1,2 000,,
Chudo.tech,High-tech,1,n/a,,
24gadget.ru,High-tech,1,800 000,,
DeviceBox.ru,High-tech,1,140 000,,
Discover24.ru,High-tech,1,100 000,,
MobiGuru.ru,High-tech,1,900 000,,
Prcy-info (prcy-info.ru),Generalist,1,10 000,,
Vigornews.ru,Generalist,1,1 000,,
Xcom-shop.ru,High-tech,1,1 000 000,,
Zybex,High-tech,1,30,,
Gazeta.ru,Generalist,1,14 000 000,,
1mgn.ru,Generalist,1,10 000,,
Сitforum.ru,Generalist,1,n/a,,
Afisha Daily,Lifestyle,1,4 400 000,,
1big.ru,High-tech,1,7 700,,
24life.ru,Generalist,1,8 000,,
ADVERtology.ru,Others,1,136 000,,
Allnokia,High-tech,1,475 200,,
Android-tornado.ru,High-tech,1,11 800,,
Anonsens.ru,High-tech,1,5 910,,
Belrynok.ru,Generalist,1,14 500,,
Chudo Tech,High-tech,1,-,,
Corpmedia.ru,Generalist,1,9 400,,
Crn.ru,High-tech,1,74 500,,
Echospb.ru,Generalist,1,6 000,,
ELLE.ru,Lifestyle,1,2 000 000,,
Hypernote.ru,High-tech,1,5 700,,
ICT-Online.ru,High-tech,1,55 700,,
Iksmedia.ru,High-tech,1,34 500,,
Info-novosti.ru,Generalist,1,-,,
Informost.ru,High-tech,1,7 800,,
Iphones.ru,High-tech,1,7 400 000,,
Itwriter.ru,High-tech,1,29 000,,
MarieClaire.ru,Lifestyle,1,884 100,,
Marketopic.ru,Generalist,1,10 000,,
Mobilecomm.ru,High-tech,1,10 000,,
Mobileimho,High-tech,1,367 500,,
Mobiltelefon,High-tech,1,2 000 000,,
Morning-news.ru,Generalist,1,35 000,,
Mskit.ru,High-tech,1,14 800,,
MSN,Generalist,1,-,,
National Geographic,Lifestyle,,,1,140 000
News.rambler.ru,Generalist,1,16 000 000,,
Nvworld.ru,High-tech,1,400 000,,
Obzor.westsib.ru,Generalist,1,130 000,,
r52.ru,Generalist,1,13 000,,
Releases.ict-online.ru,High-tech,1,1 000,,
Remobi.ru,High-tech,1,180 000,,
Retail&Loyalty,Generalist,1,80 000,,
Tdaily.ru,High-tech,1,31 400,,
Tehnika.ru,High-tech,1,13 000,,
Tvoy Gorod Pskov,Lifestyle,1,102 000,,
Vesti.ru,Generalist,1,30 000 000,,
Xcomspb.ru,High-tech,1,260 000,,
Ygbc.ru,Generalist,1,5 600,,
BestGameRus.ru,High-tech,1,8 400,,
Compress.ru,High-tech,1,486 000,,
Top Real Estate,Generalist,1,91 000,,
Kremlin Press,Generalist,1,51 000,,
Gadgets-news.ru,High-tech,1,15 900,,
NewsRu.com,High-tech,1,9 000 000,,
DimonVideo,High-tech,1,96 000,,
Prcy-info,High-tech,1,21 300,,
Photar.ru,High-tech,1,60 000,,
Mir24.tv,Generalist,1,5 600 000,,
Apps4all.ru,High-tech,1,100 000,,
Control-it.ru,High-tech,1,5 000,,
Oane.ws,Generalist,1,178 000,,
Kareliyanews.ru,Generalist,1,60 030,,
Mygazeta.com,Generalist,1,77 610,,
2-999-999.ru,Generalist,1,81 630,,
Men's Health,Lifestyle,1,2 313 930,,
CNews Zoom,High-tech,1,591 930,,
24smi.org,Generalist,1,5 000 000,,
Sobesednik.ru,Generalist,1,5 810 520,,
News.stfw.ru,High-tech,1,20 000,,
News.sputnik.ru,Generalist,1,941 500,,
07kbr.ru,Generalist,1,36 700,,
Yes Magazine,Lifestyle,1,56 370,,
Joger.ru,High-tech,1,5 000,,
Cheboksary.ru,Generalist,1,119 000,,
Gorodskoyportal.ru/cheboksary,Generalist,1,,,
basiliko,Lifestyle,1,356,,
artem,Lifestyle,1,214 000,,
pticas,Lifestyle,1,305,,
elina_khakimova,Lifestyle,1,522,,
sk_azka,Lifestyle,1,532,,
kalininanrj,Lifestyle,1,3 271,,
Fullhub.ru,High-tech,1,106 290,,
Newstes.ru,Generalist,1,250 000,,
Rolling Stone,Lifestyle,1,500 000,,
Ladie,Lifestyle,1,4 500,,
Cosmo,Lifestyle,1,23 017 680,,
News Rambler,Generalist,1,9 425 000,,
Dominterier.ru,Lifestyle,1,15 000,,
Elle Girl,Lifestyle,1,2 523 960,,
Vokrugsveta.ru,Lifestyle,1,1 098 660,,
The Geek,High-tech,1,48 400,,
RBC Style,Lifestyle,1,3 484 800,,
RuNews24,Generalist,1,797 340,,
Goroday ,Generalist,1,34 380,,
Ovesti.ru,Generalist,1,9 500,,
Sputnik FM,Generalist,1,200 000,,
Gazeta Daily,Generalist,1,658 830,,
Rueconomics.ru,Generalist,1,9 425 000,,
Radio NRJ,Lifestyle,,10 500 000,,
Ferra Labs,High-tech,1,14 000,,
Agentnews.ru,Generalist,1,10 000,,
5gfuture.ru,High-tech,1,3 000,,
Androidsofts.net,High-tech,1,1 600,,
TheRunet.com,High-tech,1,75 300,,
Graziamagazine.ru,Lifestyle,,,1,100 000
Alexandr Zhadan (@biblik),Lifestyle,1,120 724,,
Se7en Solution,High-tech,1,150 000,,
Krpress.ru,Generalist,1,15 300,,
World news,Generalist,1,1 000,,
Belrynok.com,Generalist,1,14 500,,
Stars.moscow,Lifestyle,1,8 000,,
Antenna Telesem,Lifestyle,,,1,2 500 000
NewsRbk.ru,Generalist,1,450 060,,
Pvsm.ru,High-tech,1,74 340,,
Almodi.org,High-tech,1,100 000,,
Xoroshiy.ru,Generalist,1,410 000,,
Photo-fact.ru,Generalist,1,1 380,,
Evo-rus.com,Generalist,1,143 970,,
Polit-gramota.ru,Generalist,1,304 080,,
Goroday,Generalist,1,143 970,,
Vremyamn.ru,Generalist,1,95 460,,
Popmech.ru,Lifestyle,1,2 385 360,,
News Rambler.ru,Generalist,1,80 200 000,,
Secretmag.ru,Generalist,1,2 200 000,,
Woman's Day,Lifestyle,1,16 509 060,,
Новости@Rambler.ru,Generalist,1,80 200 000,,
Changenews.ru,Generalist,1,19 320,,
Супердевайс.рф,High-tech,1,1 000,,
MobiDevices,High-tech,1,30 000,,
Tom's Hardware Guide,High-tech,1,1 800 000,,
Zdrav.expert,Others,1,7 000,,
vi66nya,Lifestyle,1,153 059,,
Women's Health,Lifestyle,1,573 720,,