MEDIA NAME,SECTOR,DIGITAL ARTIC.,UNIQUE VISITOR,PRINT ARTIC.,CIRCULATION
DIGITAL TV,Lifestyle,,,1,
diariodeleon.es,Generalist,1,189 000,,
android.es,High-tech,1,29 600,,
LA REGIÓN,Generalist,,,1,85000
ATLÁNTICO DIARIO,Generalist,,,1,16000
YAHOO FINANZAS,Generalist,1,7 364 000,,
Tuexperto.com,High-tech,1,35 000,,
Eleconomista.com,Generalist,1,4 652 800,,
Faqsandroid.com,High-tech,1,170 400,,
Smart-GSM,High-tech,1,1 113 680,,
lavozdigital.com,High-tech,1,205 000,,
europapress.es,High-tech,1,1 387 000,,
BolsaMania,Generalist,1,755 000,,
ABC.es,Generalist,1,4 281 000,,
consultor-it.com,High-tech,1,N/A,,
ActualidadGadget,High-tech,1,243 280,,
navegantegeek.com,High-tech,1,N/A,,
sumadiario.com,Generalist,1,N/A,,
diariosigloxxi.com,Generalist,1,79 840,,
Lainformacion,Generalist,1,991 000,,
Lavozlibre.com,Generalist,1,80 000,,
Lavanguardia.com,Generalist,1,2 687 000,,
invertia.com,Generalist,1,372 000,,
noticias.interbusca.com,Generalist,1,60 000,,
Informativos Telecinco,Generalist,1,3 438 000,,
EXPANSIÓN,Generalist,1,2 649 000,,
El Economista,Generalist,1,2 715 000,,
cuatro.com,Generalist,1,1 367 000,,
Computer Hoy,High-tech,1,822 000,,
Channelbiz.es,High-tech,1,34 640,,
andro4all.com,High-tech,1,183 000,,
b10geek.wordpress.com,Others,1,N/A,,
appleros.net,High-tech,1,N/A,,
zonamovilidad.es,High-tech,1,148 160,,
El Androide Libre,High-tech,1,1 598 960,,
tabletzona.es,High-tech,1,54 000,,
andro2id.com,Others,1,N/A,,
elgrupoinformatico.com,High-tech,1,65 000,,
kelisto.es,Generalist,1,658 000,,
windowsphoneapps.es,High-tech,1,25 000,,
hispazone.com,High-tech,1,43 000,,
formulandroid.com,High-tech,1,N/A,,
elchapuzasinformatico.com,High-tech,1,78 000,,
entuespacio.com,High-tech,1,9 200,,
elandroidelibre.com,High-tech,1,1 598 960,,
xatakamovil.com,High-tech,1,375 000,,
blog.a1arte.com,High-tech,1,8 240,,
madboxpc.com,High-tech,1,4 013 600,,
esmandau.com,High-tech,1,44 800,,
blog.facilweb.net,High-tech,1,N/A,,
geeksroom.com,High-tech,1,216 640,,
muymovil.com,High-tech,1,N/A,,
con-cafe.com,High-tech,1,142 640,,
arturogoga.com,High-tech,1,265 920,,
msn.com,High-tech,0,7 250 000,,
marcelojcaputo.blogspot.com.es,High-tech,1,N/A,,
tlife.guru,High-tech,1,259 520,,
technocracia.com,High-tech,1,N/A,,
abueloinformatico.es,High-tech,1,146 640,,
blog.aracatcreditoreal.com,Others,1,N/A,,
elandroidelibre.com/,High-tech,0,1 598 960,,
cybernovanet.wordpress.com,Others,1,N/A,,
networkworld.es,High-tech,1,27 520,,
computerworld.es,High-tech,1,141 920,,
La Voz de Galicia,Generalist,0,,1,579000
blog.phonehouse.es,High-tech,1,711 200,,
movilzona.es,High-tech,1,738 720,,
moviltoday.com,High-tech,1,5 200,,
imkt1.blogspot.com.es,Others,1,N/A,,
cincodias.com,Generalist,1,1 431 000,,
androidayuda.com,High-tech,1,81 000,,
lawebdelgadget.es,High-tech,1,60 800,,
tecnomagazine.net,High-tech,1,135 840,,
androidsis.com,High-tech,1,400 320,,
experienciaue.blogspot.com.es,Others,1,135 840,,
EL MUNDO (mercados),Generalist,0,,1,815000
perseus523.blogspot.com.es,Others,1,N/A,,
xatakandroid.com,High-tech,1,353 000,,
winphonemetro.com,High-tech,1,85 000,,
onewindows.es,High-tech,1,193 200,,
reiniciado.net,High-tech,1,75 600,,
La Voz de Galicia Barbanza Especial,Generalist,,,1,347000
La Voz de Galicia Arousa Especial,Generalist,,,1,103000
La Voz de Galicia A Mariña Especial,Generalist,,,1,73000
La Voz de Galicia Extra Voz Red,Generalist,,,1,579000
gualdacomunicaciones.blogspot.com.es,High-tech,1,N/A,,
smart-gsm.com,High-tech,0,13 920,,
tuexpertomovil.com,High-tech,1,156 080,,
pcworld.es,High-tech,0,111 920,,
es.engadget.com,High-tech,1,207 000,,
eandroid.es,High-tech,1,52 320,,
muycanal.com,High-tech,1,48 080,,
canalmarketing.wordpress.com,Generalist,1,N/A,,
merca20.com,Generalist,1,1 413 360,,
blogdemoviles.com,Others,1,N/A,,
teknofilo.com,High-tech,1,110 400,,
es.ubergizmo.com,High-tech,1,1 689 520,,
elpiyoyo.blogspot.com.es,Others,1,N/A,,
movilesdualsim.com,Others,1,488 400,,
unocero.com,High-tech,1,893 600,,
xataka.com,High-tech,1,4 217 040,,
La Gaceta,Generalist,,,1,78000
gabatek.com,High-tech,1,N/A,,
omicrono.com,High-tech,1,856 560,,
somosxbox.com,High-tech,1,138 640,,
microsoftinsider.es,High-tech,1,243 440,,
techzonespain.blogspot.com.es,Others,1,N/A,,
wwwhatsnew.com,High-tech,1,1 082 720,,
windowsnoticias.com,High-tech,1,35 280,,
muycomputer.com,High-tech,1,571 120,,
espcializados.es,High-tech,1,121 200,,
proandroid.com,High-tech,1,222 240,,
lagranepoca.com,Generalist,1,32 000,,
actualidadgadget.com,High-tech,1,292 480,,
movilonia.com,High-tech,1,89 440,,
operadoravirtual.es,High-tech,1,352,,
ofertaman.com,High-tech,1,103 680,,
computerhoy.com,High-tech,1,2 425 200,,
Cinco Dias,Generalist,,,1,49000
nobbot.com,High-tech,1,182 720,,
compuchannel.net,Generalist,1,14 800,,
profesionaleshoy.es,High-tech,0,16 480,,
adslzone.net,High-tech,1,642 000,,
blog.maxmovil.com,Others,1,145 680,,
preguntasfrecuentes.net,Others,1,93 920,,
madridlowcost.es,Others,1,N/A,,
telecinco.es,Generalist,1,2 075 000,,
cibersur.com,High-tech,1,N/A,,
teinteresa.es,High-tech,1,150 000,,
periodistadigital.com,Generalist,1,362 000,,
hd.com.do,High-tech,1,26 400,,
redestelecom.es,High-tech,0,16 000,,
lainformacion.com,Generalist,1,695 000,,
channelpartner.es,High-tech,0,36 400,,
Expansión Economia Digital,Generalist,,,1,
ofertamanmovil.com,High-tech,1,17 360,,
tusequipos.com,High-tech,1,80 160,,
finanzas.com,Generalist,1,185 000,,
eleconomista.es,Generalist,1,2 565 000,,
cronicadecantabria.com,Generalist,1,N/A,,
ticbeat.com,Generalist,1,813 600,,
helpmycash.com,Others,1,33 024,,
lavozdigital.es,Generalist,1,258 480,,
tribunavalladolid.com,Generalist,1,110 640,,
tribunaavila.com,Generalist,1,61 840,,
tribunasalamanca.com,Generalist,1,127 680,,
norbolsa.es,Generalist,1,34 320,,
tribunazamora.com,Generalist,1,N/A,,
tribunasegovia.com,Generalist,1,N/A,,
tribunapalencia.com,Generalist,1,N/A,,
tribunaleon.com,Generalist,1,N/A,,
economia.elpais.com,Generalist,1,5 353 000,,
viatea.es,High-tech,1,N/A,,
itreseller.es,High-tech,0,40 960,,
Telefonía Comunicaciones,High-tech,,,1,
elmundo.es,Others,1,18 062 400,,
adslzone.tv,High-tech,1,49 000,,
elconfidencial.com,Generalist,0,2 946 000,,
giztab.com,High-tech,1,126 080,,
globbpartner.com,Generalist,0,N/A,,
planetared.com,High-tech,1,136 000,,
androtalk.es,High-tech,1,510,,
ngeeks.com,High-tech,1,48 400,,
noticias3d.com,Generalist,1,75 000,,
ciospain.es,Generalist,0,45 200,,
jevedel.blogspot.com.es,Others,1,N/A,,
putoinformatico.blogspot.com.es,High-tech,1,77 680,,
gadwoman.com,High-tech,1,42 320,,
Cuore,Generalist,,,1,359000
muypymes.com,Generalist,1,165 840,,
mimamatieneunblog.com,Others,1,5 680,,
Diario de Burgos,Generalist,,,1,87000
iosmac.es,High-tech,1,99 200,,
neo2.es,Others,1,95 280,,
mamisybebes.com,Others,1,23 760,,
laflecha.net,High-tech,,52 000,,
tecnologia.facilisimo.com,High-tech,1,2 375 000,,
okdiario.com,High-tech,1,4 466 000,,
as,Generalist,1,7 769 000,,
ofertaman,Others,1,26 776,,
tecmoviles.com,High-tech,1,51 680,,
tecnofilosnews.com,High-tech,1,,,
clipset.20minutos.es,High-tech,1,698 000,,
bi.a1arte.com,High-tech,1,2 600,,
otroandroidblog.blogspot.com.es,Others,1,,,
diariotecnologia.es,High-tech,1,2 160,,
El diario montañés,Generalist,,,1,"141000
"
gadgets.es,High-tech,1,5 280,,
ocioneon.com,Others,1,346,,
compradiccion.com,High-tech,1,670 240,,
androidit,High-tech,1,1 109 120,,
Diario de Avisos,Generalist,,,1,85000
ABC Barcelona,Generalist,,,1,9000
ABC,Generalist,,,1,453000
giztab,High-tech,1,90 560,,
ABC Sevilla,Generalist,,,1,100000
andro4all,High-tech,1,955 000,,
a1arte,High-tech,1,4 240,,
adslzone,High-tech,1,1 487 000,,
El país Cataluña,Generalist,,,1,90000
El país,Generalist,,,1,1217000
ticbeat,High-tech,1,444 000,,
iosfácil,High-tech,1,2 000,,
one windows,High-tech,1,225 520,,
omicrono,High-tech,1,2 981 120,,
La voz de Cádiz,Generalist,1,401 000,,
el grupo informático,High-tech,1,333 000,,
Diario Tecnología,High-tech,1,4 800,,
itespresso,Others,1,78 000,,
movilesdualsim,High-tech,1,47 000,,
frikipandi (ABC),High-tech,1,12 265 000,,
el android libre,High-tech,1,664 000,,
Cuatro TV,Others,1,,,1066000
Tele 5 ,Others,1,,,3110000
La Sexta,Others,1,,,1150000
Movilonia,High-tech,1,18 000,,
Diario de Noticias,Generalist,,,1,70000
Expansión economía digital,Generalist,,,1,136000
te quiero márketing,Others,1,41 000,,
Actualidad Gadget,High-tech,1,65 000,,
mycomputer,High-tech,1,47 000,,
La nueva España,Generalist,,,1,301000
In Style,Lifestyle,1,,1,110000
Vanity Fair,Lifestyle,1,614 000,,
Levante,Generalist,,,1,260000
La opinión de Murcia,Generalist,,,1,41000
La opinión de Cartagena,Generalist,,,1,55000
Diario de Ibiza,Generalist,,,1,28000
muycomputer,High-tech,1,1 360 000,,
engadget,High-tech,1,259 000,,
adictamente,Others,1,3 200,,
20 minutos Madrid,Generalist,,,1,542000
20 minutos Andalucía,Generalist,,,1,117000
20 minutos Barcelona,Generalist,,,1,155000
20 minutos Valencia,Generalist,,,1,38000
desábado Heraldo de Aragón,Generalist,,,1,245000
Jaen,Generalist,,,1,34000
ANDROIDSIS,High-tech,1,1 040 000,,
Diario de Sevilla,Generalist,,,1,86000
Huelva información,Generalist,,,1,45000
Granada Hoy,Generalist,,,1,13000
Diario de Cádiz,Generalist,,,1,64000
Diario de Almería,Generalist,,,1,14000
Diario de Jerez,Generalist,,,1,27000
Málaga Hoy,Generalist,,,1,16000
El día de Córdoba,Generalist,,,1,14000
Europa Sur,Generalist,,,1,13000
Media tics,High-tech,1,36 320,,
Android libre,High-tech,1,5 680,,
Topes de Gama,High-tech,1,514 320,,
Renovar papeles,Others,1,109 120,,
Blogitecno,High-tech,1,19 760,,
Mía,Lifestyle,,,1,253000
blog.phonehouse.e,High-tech,1,71 600,,
circularesprocom.blogspot.com.es,High-tech,1,N/A,,
EL MUNDO,Generalist,1,14 345 000,,
ocio.net,Lifestyle,1,866 900,,
Hechos de Hoy,Generalist,1,37 800,,
Móvil Zona,High-tech,1,599 000,,
Gualda Comunicación,High-tech,1,5 000,,
Clickug,High-tech,1,16 100,,
Abuelo Informático,High-tech,1,24 000,,
ReadWriteWeb,High-tech,1,1 200 000,,
Noticias 3D,High-tech,1,166 000,,
Teknófilo,High-tech,1,239 600,,
Tu Experto Móvil,High-tech,1,133 000,,
Esmandau,High-tech,1,38 900,,
Winphonemetro,High-tech,1,81 000,,
Bolsamanía,Generalist,1,1 501 000,,
Xataka Android,High-tech,1,832 000,,
Muy Computer,High-tech,1,47 000,,
Tu Sitio WP,High-tech,1,7 400,,
Gadgetos.com,High-tech,1,154 900,,
elotrolado.net ,High-tech,1,1 366 000,,
giztab.com ,High-tech ,1,121 100,,
teknikop.com ,High-tech,1,119 908,,
Windowsnoticias,High-tech,1,64 500,,
Webadictos ,High-tech ,1,1 694 057,,
Microsoftinsider ,High-tech,1,15 000,,
Mercadillotecnologico ,High-tech ,1,132 700,,
Elgrupoinformatico ,High-tech ,1,333 000,,
Espcializados,High-tech ,1,149 900,,
Softwarelogía,High-tech ,1,83 328,,
Gualdacomunicaciones,High-tech,1,0,,
AturoGoga.com,High-tech ,1,725 028,,
Tusitiowindowsphone.es ,High-tech,1,9 951,,
Pysnnoticias ,High-tech ,1,11 284,,
Blog 1 Arte,Others,1,5 000,,
Xataka,High-tech,1,3 066 000,,
Tablet Zona,High-tech,1,135 000,,
Norberto Gallego,Others,1,13 300,,
Noticiero Universal,Generalist,1,127 400,,
Xataka  ,Others ,1,3 066 000,,
Eandroid.es ,High-tech,1,59 800,,
OperadorVirtual.es ,High-tech,1,4 415,,
Androidpit.es,High-tech,1,242 615,,
Viaempresa.cat,High-tech,1,15 380,,
Channelpartner.es ,High-tech ,1,10 665,,
Electro-imagen.com ,High-tech ,1,6 370,,
Promateriales ,High-tech ,1,12 090,,
Especializados.es ,High-tech ,1,0,,
Alimarket ,High-tech ,1,3 900,,
La Vanguardia,,1,13 330 000,,
Mala Vida,,1,228 000,,
On Off,,,,1,
Channel Partner (Suplemento),,,7 738,1,
El Abuelo Informático,,1,17 000,,
OK Diario,,1,5 541 000,,
PC World,,1,135 770,,
Marrón y Blanco,,1,15 150,,
Blog 1a Arte,,1,5 000,,
Xataka Móvil,,1,871 000,,
FAQs Android,,1,71 000,,
Sonitrón,,1,26 150,,
Pro Android,,1,785 010,,
Paperblog,,1,113 000,,
Electro-Imagen,,1,29 660,,
Tecnologyc,,1,23 160,,
Vida Premium,,1,13 000,,
Revista Gadget,,1,109 820,,
Mundo Digital,,1,45 700,,
Muy Canal,,1,264 560,,
Movilzona,,1,700 000,,
Tu Experto,,1,433 000,,
Electro-Market,,1,34 690,,
Channel Partner,,1,33 560,,
La Razón,,1,2 980 000,,
Especializados ,,1,167 000,,
La Opinión de Málaga,,1,682 000,,
EnAndroid,,1,21 240,,
La Opinión de Tenerife,,,26 000,1,
Electro Market,,1,34 690,,
Globedia,,1,30 000,,
Tu Experto Apps,,1,111 000,,
AndroTalk,,1,20 400,,
Tecnología 21,,1,14 250,,
"Blogs 20 Minutos (Madre Reciente, cada vez menos)",,1,9 674 000,,
Invertia,,1,250 000,,
El Español,,1,6 499 000,,
Interbusca,,1,62 000,,
Crónica de Cantabria,,1,6 700,,
Te Interesa,,1,105 000,,
Inversión y Finanzas,,1,466 000,,
Europa Press,,1,4 302 000,,
Periodista Digital,,1,2 044 000,,
Diario Siglo XXI,,1,199 140,,
La Voz Libre,,1,54 000,,
Norbroker Bolsa,,1,95 520,,
La Información,,1,2 504 000,,
El Periódico de Catalunya,,1,6 439 000,,
MUY PYMES,,1,498 700,,
Sabemos Digital,,1,92 510,,
Capital News,,1,5 180,,
Silicon,,1,166 090,,
Android Pit,,1,4 240 000,,
Diario de León,,1,5 000,,
EFE,,1,239 000,,
Operadora Virtual,,1,23 270,,
Tecnología Digital,,,52 000,1,
Hora Punta,,1,6 320,,
Smart GSM,,1,180 000,,
El Androide Libre/El Español,High-tech,1,12 850 000,,
Electro Imagen,,,6 250,1,
Magazine de La Vanguardia,,,634 000,1,
Yahoo.es ,,1,3 109 600,,
Analitica.com ,,1,0,,