{
  "/js/app.js": "/js/app.js",
  "/css/app.css": "/css/app.css",
  "/css/bootstrap.css": "/css/bootstrap.css",
  "/css/adminlte-app.css": "/css/adminlte-app.css",
  "/css/toastr.css": "/css/toastr.css",
  "/css/form.css": "/css/form.css",
  "/js/app-landing.js": "/js/app-landing.js",
  "/css/all.css": "/css/all.css",
  "/css/all-landing.css": "/css/all-landing.css",
  "/css/main.css": "/css/main.css"
}